<svg xmlns="http://www.w3.org/2000/svg" width="113.132" height="111.637" viewBox="0 0 113.132 111.637">
  <g id="inkscape-logo" transform="translate(-964.901 -169.312)">
    <path id="Path_13" data-name="Path 13" d="M1011.028,173.144l-41.76,42.733c-14.11,17.473,9.6,15.442,19.766,20.473,3.646,3.726-13.976,6.479-10.33,10.21s22.05,7.181,25.7,10.907-7.464,7.681-3.818,11.409,12.081.2,13.669,8.8c1.124,6.149,15.2,2.642,22.081-2.395,3.646-3.731-6.976-3.38-3.33-7.106,9.066-9.274,17.51-3.37,20.612-12.661,1.532-4.591-13.349-7.07-9.7-10.806,10.492-6.128,46.753-10.115,29.547-27.322l-43.294-44.244A13.877,13.877,0,0,0,1011.028,173.144ZM1059,255.516c0,2.121,15.62,3.509,15.62-.5C1072.391,248.575,1060.843,249.009,1059,255.516Zm-70.366,11.265c3.7,3.2,9.413-.8,11.126-5.26-3.584-4.772-17,.177-11.124,5.26Zm68.408-6.91c-4.768,4.278.535,8.616,5.234,5.854C1063.32,264.66,1062.245,260.934,1057.037,259.871Z" transform="translate(0)"/>
    <path id="Path_14" data-name="Path 14" d="M979.454,197.834c1.579.98,25.474,5.835,31.314,6.8,2.025.427.589,2.512-2.2,3.922C1002.282,210.231,971.752,197.834,979.454,197.834Z" transform="translate(18.067 38.698)" fill="#fff"/>
    <path id="Path_15" data-name="Path 15" d="M1019.015,175.665l23.388,23.754a6.934,6.934,0,0,1,.943,7.921l-11.614-9.29-2.284,13.756-9.7-5.131-15.538,9.818L999.067,195.8l-8.348,14.442h-12.75c-5.2,0-5.814-6.6-1.086-11.327,8.249-8.911,17.73-17.994,22.879-23.257A13.819,13.819,0,0,1,1019.015,175.665Z" transform="translate(11.905 3.317)" fill="#fff"/>
  </g>
</svg>
